{
  "data": [
    {
      "id": 53,
      "title": "جُمَادَى الأُولى",
      "titleEn": "Jumada al-Awwal",
      "description": "كانت تسمى قبل الإسلام باسم جمادى خمسة، وسميت جمادى لوقوعها في الشتاء وقت التسمية حيث جمد الماء وهي مؤنثة النطق.",
      "descriptionEn": null,
      "start": "2022-11-24T21:00:00.000Z",
      "end": null,
      "periodId": 4
    },
    {
      "id": 133,
      "title": "بداية الدراسة للطلاب للفصل الدراسي الثاني",
      "titleEn": "Beginning of the second semester",
      "description": null,
      "descriptionEn": null,
      "start": "2022-12-03T21:00:00.000Z",
      "end": null,
      "periodId": 11
    },
    {
      "id": 134,
      "title": "إجازة نهاية أسبوع مطولة",
      "titleEn": "Long weekend holiday",
      "description": null,
      "descriptionEn": null,
      "start": "2022-12-17T21:00:00.000Z",
      "end": null,
      "periodId": 11
    },
    {
      "id": 54,
      "title": "جُمَادَى الآخِرَة",
      "titleEn": "Jumada al-Akhirah",
      "description": "سمي بذلك لأنه تبع الشهر المسمى بجمادى الأولى.",
      "descriptionEn": null,
      "start": "2022-12-24T21:00:00.000Z",
      "end": null,
      "periodId": 4
    },
    {
      "description": "يتسم بسرعة تقلباته الجوية، وإذا هبت الريح فيه تكون باردة، والعامة يسمونه \"مبكية الحصني\"",
      "descriptionEn": "It is characterized by rapid weather fluctuations, and if the wind blows there, it is cold",
      "end": null,
      "id": 1,
      "periodId": 1,
      "start": "2023-01-14T21:00:00.000Z",
      "title": "الشبط",
      "titleEn": "Alshbt (الشبط)"
    }
  ],
  "meta": {
    "total": 221,
    "lastPage": 45,
    "currentPage": 7,
    "perPage": 5,
    "prev": 6,
    "next": 8
  }
}
